<?xml version="1.0" encoding="utf-8"?>
<!-- Generator: Adobe Illustrator 22.1.0, SVG Export Plug-In . SVG Version: 6.00 Build 0)  -->
<svg version="1.1" id="Layer_1" xmlns="http://www.w3.org/2000/svg" xmlns:xlink="http://www.w3.org/1999/xlink" x="0px" y="0px"
	 viewBox="0 0 1823 512" style="enable-background:new 0 0 1823 512;" xml:space="preserve">
<style type="text/css">
	.st0{fill:#FFFFFF;}
</style>
<title>Mask 1</title>
<g id="Layer_2_1_">
	<g id="Layer_4">
		<path class="st0" d="M480.8,71.9c64.8,0,121.9,41.5,141.3,100.2c0,0,12.3,37.8,27.3,83.9l50.7,156c2.9,8.8,3,9.2,1.3,3.6
			c19.5,54,71.2,92.6,130.7,96.3H1823V0H0v71.9H480.8z"/>
	</g>
</g>
</svg>
