<?xml version="1.0" encoding="utf-8"?>
<!-- Generator: Adobe Illustrator 23.0.2, SVG Export Plug-In . SVG Version: 6.00 Build 0)  -->
<svg version="1.1" id="Layer_1" xmlns="http://www.w3.org/2000/svg" xmlns:xlink="http://www.w3.org/1999/xlink" x="0px" y="0px"
	 viewBox="0 0 2200 676" style="enable-background:new 0 0 2200 676;" xml:space="preserve">
<style type="text/css">
	.st0{fill:#FFFFFF;}
</style>
<title>why-text-bg</title>
<g id="Page-1">
	<g id="Skyynetwork-landing-page">
		<path id="Fill-1" class="st0" d="M1923.7,338.3l-60.1-184.4C1833.9,63.7,1746.2,0,1646.9,0L0,0l0,676h2200
			c-99.3,0-187-63.7-216.7-153.9L1923.7,338.3z"/>
	</g>
</g>
</svg>
